<?xml version="1.0" standalone="no"?>
<!DOCTYPE svg PUBLIC "-//W3C//DTD SVG 20010904//EN"
 "http://www.w3.org/TR/2001/REC-SVG-20010904/DTD/svg10.dtd">
<svg version="1.0" xmlns="http://www.w3.org/2000/svg"
 width="400.000000pt" height="400.000000pt" viewBox="0 0 400.000000 400.000000"
 preserveAspectRatio="xMidYMid meet">
<metadata>
Created by potrace 1.14, written by Peter Selinger 2001-2017
</metadata>
<g transform="translate(0.000000,400.000000) scale(0.100000,-0.100000)"
fill="#000000" stroke="none">
<path d="M0 2000 l0 -2000 2000 0 2000 0 0 2000 0 2000 -2000 0 -2000 0 0
-2000z m1825 1637 c22 -14 52 -36 68 -47 23 -18 26 -19 20 -4 -5 15 -2 16 23
10 28 -7 47 -8 107 -6 39 2 97 -37 113 -76 8 -18 27 -39 46 -49 42 -21 147
-55 172 -55 31 0 96 -22 90 -31 -6 -10 65 -43 84 -40 26 4 308 -81 352 -106
134 -76 264 -198 362 -338 74 -107 97 -154 114 -239 29 -138 28 -137 114 -212
106 -91 190 -189 190 -220 0 -29 -15 -31 -30 -3 -9 17 -14 18 -26 8 -12 -10
-16 -9 -21 9 -4 18 -9 20 -24 11 -11 -5 -24 -7 -30 -3 -7 4 -9 -1 -4 -15 9
-30 -4 -26 -15 5 -13 33 -28 23 -22 -16 5 -37 -5 -39 -19 -4 -9 26 -10 26 -23
8 -12 -15 -16 -16 -30 -5 -9 7 -16 19 -16 27 0 7 -9 16 -20 19 -11 3 -20 13
-20 21 0 12 -37 18 -76 13 -4 0 -10 5 -15 12 -6 10 -10 10 -23 0 -12 -10 -17
-8 -31 13 -13 20 -21 23 -34 16 -14 -7 -21 -2 -36 26 -21 39 -34 43 -42 14 -6
-24 -38 -27 -47 -4 -9 24 -30 11 -37 -22 -7 -28 -7 -28 -14 -6 -9 27 -35 29
-35 2 0 -26 -26 -26 -40 1 -8 15 -8 24 0 34 7 8 9 19 5 25 -8 13 -48 13 -62
-1 -7 -7 -12 -4 -16 10 -7 27 18 48 37 32 10 -8 16 -9 21 -1 3 5 0 10 -9 10
-8 0 -17 6 -20 13 -5 9 -7 9 -12 0 -3 -8 -16 -10 -33 -7 -16 4 -32 1 -35 -5
-4 -6 -12 -8 -18 -5 -6 4 -14 0 -19 -7 -7 -12 -11 -11 -26 4 -16 16 -16 17 6
17 19 0 22 4 18 22 -7 24 17 58 38 58 16 0 27 28 18 43 -4 7 0 8 13 3 49 -20
57 -20 49 3 -10 33 2 60 25 54 11 -3 20 -1 20 4 0 13 73 12 83 -1 5 -8 10 -7
16 2 9 15 35 10 129 -27 30 -12 51 -17 47 -11 -3 5 -11 10 -17 10 -7 0 -22 10
-35 22 -21 19 -21 23 -8 38 9 10 13 25 9 34 -7 17 -39 22 -49 6 -9 -15 -37 1
-30 18 3 8 1 20 -4 26 -6 7 -2 25 10 50 10 21 16 43 13 47 -3 5 0 9 6 9 22 0
-19 56 -57 75 -31 16 -157 91 -172 102 -2 2 -2 5 1 8 6 6 59 -15 68 -26 10
-12 50 -30 50 -22 0 16 -31 53 -45 53 -8 0 -29 14 -47 30 -34 32 -82 40 -119
19 -22 -11 -17 -29 9 -29 9 -1 31 -7 47 -16 l30 -14 -30 5 c-62 12 -101 25
-120 41 -17 13 -17 15 -2 10 22 -7 22 5 -1 25 -9 8 -28 28 -40 44 -22 28 -24
24 -7 -17 6 -14 2 -18 -16 -18 -67 -1 -105 -6 -111 -14 -4 -6 -16 -6 -30 1
-16 7 -30 8 -41 2 -22 -13 -57 6 -57 31 0 14 -5 18 -22 14 -13 -3 -65 -6 -117
-7 -73 -2 -96 1 -105 13 -6 8 -20 22 -31 30 -20 15 -20 14 -1 -8 l19 -22 -47
0 c-40 0 -52 5 -82 35 -19 19 -39 35 -44 35 -5 0 -43 45 -84 99 -118 155 -243
251 -327 251 -45 0 -52 20 -17 44 18 13 44 15 118 13 83 -3 100 -7 135 -30z
m-285 -116 c0 -16 -43 -85 -63 -101 -27 -23 -43 -152 -23 -182 23 -33 20 -59
-3 -31 -10 12 -21 20 -24 17 -9 -9 -20 104 -13 137 10 51 84 169 106 169 11 0
20 -4 20 -9z m262 -65 c4 -6 -4 -22 -17 -36 -14 -15 -25 -30 -25 -36 0 -5 -9
-15 -21 -22 -25 -16 -67 -103 -78 -164 l-8 -43 -11 28 c-26 63 -13 108 62 225
41 63 51 72 69 66 12 -4 25 -12 29 -18z m372 -305 c-2 -3 -12 3 -22 13 -16 17
-16 18 5 5 12 -7 20 -15 17 -18z m-556 -96 c155 7 342 -11 350 -33 3 -10 -4
-12 -32 -7 -23 5 -36 3 -36 -3 0 -6 17 -14 38 -17 58 -10 60 -12 72 -56 13
-48 6 -101 -15 -119 -8 -7 -18 -34 -21 -61 -7 -49 -7 -49 -30 -34 -31 20 -37
19 -24 -5 9 -17 6 -20 -28 -30 -22 -5 -50 -10 -63 -9 -83 1 -133 9 -140 21 -8
11 -10 11 -18 -1 -9 -14 -94 -34 -86 -20 10 16 -16 20 -31 5 -19 -20 -43 -21
-50 -2 -3 8 -13 12 -25 9 -15 -4 -22 0 -26 16 -3 11 -12 21 -19 21 -8 0 -14 7
-14 15 0 9 -10 15 -26 15 -14 0 -23 4 -19 10 12 19 -5 30 -31 20 -19 -7 -29
-6 -39 4 -8 7 -11 16 -8 20 4 3 -1 6 -11 6 -9 0 -15 -4 -11 -9 3 -5 1 -12 -4
-15 -5 -4 -12 -2 -16 4 -11 18 -70 10 -107 -15 -20 -14 -39 -25 -42 -25 -13 0
-5 28 9 34 8 3 15 10 15 16 0 6 -18 1 -41 -12 -30 -17 -42 -19 -48 -10 -5 9
-12 7 -26 -8 -18 -20 -18 -21 1 -14 16 6 17 5 7 -7 -20 -21 -15 -34 6 -15 13
12 21 14 26 6 3 -5 10 -8 15 -5 10 6 7 -46 -3 -62 -16 -25 -29 -13 -22 20 l7
32 -22 -20 -22 -20 -16 23 -15 23 -17 -36 c-13 -27 -19 -33 -23 -21 -3 8 -2
18 3 21 6 4 10 22 10 41 l0 34 -22 -22 c-13 -13 -22 -29 -20 -35 2 -7 -5 -13
-15 -13 -10 0 -26 -14 -35 -30 -9 -17 -25 -30 -35 -30 -14 0 -15 -2 -4 -9 18
-11 5 -31 -20 -31 -10 0 -19 -5 -19 -11 0 -5 -3 -8 -8 -5 -4 2 -16 -2 -27 -10
-20 -15 -20 -15 0 -27 11 -6 22 -12 25 -12 17 -3 57 -19 68 -28 16 -13 -3 -38
-24 -30 -8 3 -14 -1 -14 -8 0 -7 3 -9 7 -6 7 8 33 -11 33 -25 0 -6 -16 0 -36
12 -20 11 -43 19 -51 16 -7 -3 -16 1 -19 9 -4 10 -17 12 -47 9 -23 -3 -42 -6
-43 -7 -1 -1 -4 -15 -8 -31 -6 -25 -5 -28 7 -18 8 7 17 9 21 5 4 -4 4 0 1 9
-4 9 -2 19 4 23 7 4 11 -4 11 -19 0 -14 -5 -28 -10 -31 -6 -4 -10 -40 -8 -85
2 -73 3 -77 20 -66 15 9 21 8 28 -4 12 -19 13 -33 1 -26 -5 4 -12 0 -15 -6 -5
-10 -7 -10 -12 0 -3 6 -10 12 -15 12 -9 0 -5 -17 18 -67 9 -21 12 -46 7 -68
-4 -26 -2 -41 9 -53 14 -15 13 -23 -10 -80 -14 -35 -32 -66 -40 -69 -23 -9
-63 -52 -63 -68 0 -8 -5 -15 -11 -15 -6 0 -9 7 -5 15 3 8 1 15 -4 15 -6 0 -10
-5 -10 -12 0 -22 -33 -48 -61 -48 -15 0 -31 -5 -35 -11 -5 -8 -10 -6 -16 5
-12 21 -46 20 -72 -1 -11 -10 3 10 31 44 28 33 92 96 143 140 52 43 98 86 104
95 8 13 1 26 -36 66 -53 57 -68 99 -68 194 0 147 56 286 161 399 38 40 143
116 204 146 40 21 225 85 278 97 15 4 25 11 22 16 -3 5 3 11 12 14 25 7 172
35 208 39 29 3 30 6 35 63 l4 59 4 -58 3 -57 137 5z m782 85 c12 -8 11 -10 -7
-10 -12 0 -25 5 -28 10 -8 13 15 13 35 0z m-440 -55 c0 -23 -4 -25 -45 -25
-25 0 -45 2 -45 5 0 8 64 45 78 45 6 0 12 -11 12 -25z m405 15 c3 -5 16 -9 28
-8 33 1 79 -20 71 -34 -5 -8 0 -9 17 -4 13 4 35 10 49 13 22 6 24 4 11 -10 -7
-10 -18 -17 -23 -17 -8 0 -40 -32 -65 -65 -5 -5 -8 -19 -7 -30 0 -11 -11 -29
-25 -41 -14 -12 -20 -23 -14 -27 5 -3 30 12 54 34 24 21 49 43 55 49 7 5 14
15 17 22 2 7 7 10 11 7 7 -7 -29 -74 -57 -104 -129 -143 -172 -185 -189 -179
-10 3 -18 1 -18 -4 0 -6 5 -12 12 -14 8 -3 2 -17 -16 -41 -15 -20 -25 -41 -22
-46 4 -5 2 -12 -4 -16 -5 -3 -10 0 -10 8 0 8 -7 20 -15 27 -12 10 -15 9 -15
-6 -1 -22 -26 -53 -58 -71 -26 -15 -35 -16 -27 -4 7 12 -85 -36 -107 -56 -28
-25 -21 -7 8 22 14 14 24 29 21 31 -8 8 -67 -38 -67 -51 0 -21 -37 -46 -72
-50 -18 -1 -46 -6 -62 -10 -21 -6 -27 -5 -22 4 4 6 17 11 29 12 12 0 16 3 10
6 -15 5 -17 39 -4 47 5 4 11 0 14 -6 3 -10 7 -10 20 1 11 9 17 10 17 2 0 -6
-4 -11 -9 -11 -5 0 -11 -6 -14 -14 -4 -10 0 -12 15 -8 17 4 19 11 15 38 -5 30
6 49 15 24 2 -5 19 13 38 40 41 57 51 63 97 54 27 -5 31 -9 22 -20 -10 -12 -8
-13 7 -8 18 5 18 5 0 -10 -25 -20 -7 -21 20 -1 11 8 14 14 6 15 -10 0 -10 5
-2 20 6 11 16 17 22 14 6 -4 8 -3 4 4 -3 6 8 22 26 36 36 27 58 65 82 141 9
28 28 67 41 88 14 20 21 37 15 37 -5 0 -10 21 -10 48 0 26 -7 59 -14 75 -14
26 -14 27 9 21 20 -5 23 -3 18 15 -4 17 -1 21 20 21 14 0 29 -4 32 -10z m195
-81 c0 -5 -7 -9 -15 -9 -9 0 -12 6 -9 15 6 15 24 11 24 -6z m320 -29 c14 -26
13 -30 -9 -30 -25 0 -38 20 -20 31 11 6 10 9 -4 15 -9 3 -17 10 -17 15 0 15
38 -9 50 -31z m60 0 c11 -11 24 -20 30 -20 5 0 14 -9 20 -20 11 -21 -3 -29
-16 -9 -3 6 -16 8 -29 5 -29 -7 -57 20 -34 35 12 8 12 10 -1 19 -10 6 -11 10
-2 10 6 0 21 -9 32 -20z m-110 -12 c0 -13 -23 -5 -28 10 -2 7 2 10 12 6 9 -3
16 -11 16 -16z m30 -43 c0 -8 9 -24 21 -36 22 -22 43 -79 29 -79 -4 0 -11 11
-14 25 -7 26 -36 25 -36 -1 0 -8 -6 -14 -13 -14 -10 0 -13 12 -11 38 1 20 2
38 3 40 4 10 -2 17 -16 17 -9 0 -18 6 -20 13 -3 8 6 12 26 12 21 0 31 -5 31
-15z m234 -20 c-4 -8 -14 -15 -23 -15 -14 1 -13 3 3 15 25 19 27 19 20 0z
m-274 -31 c0 -8 -4 -12 -10 -9 -5 3 -10 10 -10 16 0 5 5 9 10 9 6 0 10 -7 10
-16z m-16 -23 c3 -4 3 -11 0 -14 -8 -8 -34 3 -34 14 0 11 27 12 34 0z m-722
-32 c4 -22 -1 -34 -15 -44 -11 -7 -25 -24 -31 -37 -17 -34 -40 -29 -44 10 -3
27 3 39 33 68 20 19 40 34 45 34 4 0 10 -14 12 -31z m148 -14 c-6 -19 -23 -49
-36 -65 -14 -16 -25 -33 -25 -37 1 -4 -12 -12 -27 -18 -15 -5 -42 -20 -59 -32
-32 -24 -53 -29 -53 -14 0 13 -70 -13 -81 -30 -5 -8 -9 -9 -9 -4 0 23 32 55
56 55 14 0 24 6 24 14 0 8 22 25 50 37 27 12 52 30 55 39 3 9 19 26 35 39 26
19 31 20 36 6 9 -22 20 -10 28 26 3 18 9 30 12 26 3 -3 1 -22 -6 -42z m755
-15 c3 -5 -3 -10 -14 -10 -12 0 -21 5 -21 10 0 6 6 10 14 10 8 0 18 -4 21 -10z
m-1785 -30 c0 -5 -7 -10 -15 -10 -8 0 -15 5 -15 10 0 6 7 10 15 10 8 0 15 -4
15 -10z m1850 0 c0 -5 -4 -10 -10 -10 -5 0 -10 5 -10 10 0 6 5 10 10 10 6 0
10 -4 10 -10z m35 -10 c3 -5 2 -10 -4 -10 -5 0 -13 5 -16 10 -3 6 -2 10 4 10
5 0 13 -4 16 -10z m-2185 -79 c0 -12 -20 -25 -27 -18 -7 7 6 27 18 27 5 0 9
-4 9 -9z m106 -15 c3 -9 12 -12 21 -9 11 4 14 3 9 -6 -4 -7 -13 -10 -19 -8 -7
2 -20 -2 -30 -11 -22 -19 -30 -12 -21 22 7 28 31 35 40 12z m-76 -55 c0 -11
-29 -35 -35 -29 -10 9 7 38 21 38 8 0 14 -4 14 -9z m35 -29 c0 -18 -20 -15
-23 4 -3 10 1 15 10 12 7 -3 13 -10 13 -16z m1860 -2 c3 -5 -1 -10 -9 -10 -8
0 -18 5 -21 10 -3 6 1 10 9 10 8 0 18 -4 21 -10z m-1975 -30 c0 -5 -5 -10 -11
-10 -5 0 -7 5 -4 10 3 6 8 10 11 10 2 0 4 -4 4 -10z m60 -8 c0 -5 -9 -17 -20
-27 -22 -20 -26 -14 -10 16 11 19 30 26 30 11z m796 -69 c-11 -11 -26 10 -26
35 l1 27 15 -28 c9 -16 13 -31 10 -34z m84 24 c0 -5 -4 -5 -10 -2 -5 3 -10 14
-10 23 0 15 2 15 10 2 5 -8 10 -19 10 -23z m22 -37 c-4 -31 -19 -40 -27 -17
-4 8 -24 11 -68 9 -35 -2 -78 0 -96 5 -26 7 -15 9 55 10 70 0 124 9 140 22 0
1 -1 -12 -4 -29z m28 5 c0 -8 -4 -15 -10 -15 -5 0 -7 7 -4 15 4 8 8 15 10 15
2 0 4 -7 4 -15z m-310 -25 c0 -5 -6 -10 -14 -10 -8 0 -23 -3 -33 -6 -10 -3 -7
2 7 10 30 18 40 20 40 6z m37 4 c-3 -3 -12 -4 -19 -1 -8 3 -5 6 6 6 11 1 17
-2 13 -5z m188 -14 c-3 -5 -13 -10 -21 -10 -8 0 -12 5 -9 10 3 6 13 10 21 10
8 0 12 -4 9 -10z m-309 -25 c-11 -8 -23 -15 -28 -15 -4 0 -8 -5 -8 -10 0 -6
17 -1 37 10 21 11 47 20 58 19 20 0 20 0 0 -9 -14 -5 -7 -8 27 -8 36 0 59 -8
93 -31 25 -17 59 -31 74 -31 15 0 31 -3 34 -7 4 -3 46 -8 92 -9 61 -3 90 -8
101 -19 9 -8 26 -15 38 -15 33 0 47 -21 38 -56 -9 -36 30 -169 41 -140 4 10 7
28 7 41 0 28 15 41 60 50 19 3 65 22 101 41 37 19 79 34 94 34 40 0 161 -37
225 -70 30 -15 67 -32 83 -38 21 -9 27 -18 27 -41 0 -16 5 -33 11 -37 9 -5 10
1 5 20 -4 15 -2 26 4 26 5 0 10 -17 10 -37 l1 -38 13 30 13 30 8 -40 c7 -35 9
-37 16 -17 l8 22 33 -20 c18 -11 43 -24 55 -29 48 -22 113 -138 119 -217 5
-52 4 -54 -19 -54 -18 0 -32 12 -53 45 -25 41 -137 140 -157 140 -14 0 -27 29
-28 65 l-1 35 -7 -30 -7 -30 -7 28 c-7 24 -10 27 -22 17 -8 -7 -15 -18 -15
-26 0 -10 -13 -8 -50 8 -29 12 -49 26 -46 33 2 6 -11 17 -30 24 -19 7 -41 19
-50 28 -36 36 -184 20 -184 -20 0 -10 -8 -13 -27 -9 l-27 5 22 -28 c20 -25 21
-30 7 -45 -8 -9 -15 -22 -15 -29 0 -11 -80 -51 -103 -51 -6 0 -19 8 -29 17
-21 19 -32 22 -98 23 -59 2 -98 -7 -135 -30 -26 -16 -32 -17 -49 -4 -14 10
-23 11 -33 3 -10 -9 -13 -5 -13 21 0 28 -2 31 -15 20 -13 -10 -15 -9 -15 9 0
11 -5 21 -11 21 -7 0 -9 9 -6 21 4 16 -1 24 -27 34 -19 8 -36 23 -39 35 -4 17
-13 20 -61 20 -44 0 -57 -4 -66 -19 -5 -11 -23 -22 -40 -26 -16 -4 -30 -13
-30 -20 0 -8 -9 -17 -20 -20 -11 -3 -20 -11 -20 -17 0 -7 -5 -7 -14 1 -10 9
-15 8 -20 -4 -3 -8 -12 -15 -21 -15 -19 0 -67 -24 -97 -48 -35 -29 -120 -102
-185 -161 -91 -81 -113 -86 -113 -24 0 28 14 57 54 117 97 148 101 157 101
276 -1 73 -6 120 -18 153 -28 78 -3 102 98 95 43 -3 50 -6 55 -28 l6 -25 8 23
c9 28 24 28 35 0 8 -21 8 -21 15 6 6 24 11 27 33 23 19 -3 34 2 52 19 14 13
35 24 46 24 20 -1 20 -1 1 -15z m2164 -205 c0 -5 -4 -10 -10 -10 -5 0 -10 5
-10 10 0 6 5 10 10 10 6 0 10 -4 10 -10z m-45 -10 c3 -5 1 -10 -4 -10 -6 0
-11 5 -11 10 0 6 2 10 4 10 3 0 8 -4 11 -10z m-2158 -277 c-3 -10 -5 -4 -5 12
0 17 2 24 5 18 2 -7 2 -21 0 -30z m-127 -23 c0 -5 -5 -10 -11 -10 -5 0 -7 5
-4 10 3 6 8 10 11 10 2 0 4 -4 4 -10z m750 -12 c19 -20 25 -43 22 -78 -3 -31
8 -57 31 -69 13 -7 31 -30 40 -50 22 -49 21 -54 -3 -41 -13 7 -20 7 -20 1 0
-6 -7 -8 -15 -5 -8 3 -29 -1 -46 -10 -39 -20 -40 -20 -33 -1 5 12 -2 15 -29
15 -19 0 -37 -6 -40 -12 -6 -19 -57 11 -57 33 0 19 -35 23 -57 6 -8 -6 -13 -6
-13 1 0 5 11 17 24 26 29 18 42 54 27 69 -16 16 -14 80 4 103 14 18 14 17 9
-13 -8 -40 11 -45 27 -9 7 14 22 27 35 30 13 4 24 11 24 16 0 19 49 10 70 -12z
m59 -98 c0 -10 -3 -8 -9 5 -12 27 -12 43 0 25 5 -8 9 -22 9 -30z m71 11 c0 -6
-4 -13 -10 -16 -5 -3 -10 -15 -10 -26 0 -11 -4 -17 -10 -14 -14 9 -13 33 3 50
14 17 27 19 27 6z m-1040 -76 c-7 -8 -18 -15 -24 -15 -20 0 -96 -79 -90 -94 3
-8 -3 -19 -15 -26 -12 -6 -21 -8 -21 -6 0 3 -11 1 -24 -4 -43 -16 -19 25 47
83 59 51 98 75 126 76 11 1 11 -2 1 -14z m80 -40 c0 -2 -9 -9 -20 -15 -16 -9
-20 -8 -20 5 0 8 9 15 20 15 11 0 20 -2 20 -5z m-65 -25 c-3 -5 -14 -10 -24
-10 -10 0 -26 -9 -36 -20 -10 -11 -25 -20 -34 -20 -30 1 54 58 87 59 7 1 10
-3 7 -9z m15 -34 c0 -3 -4 -8 -10 -11 -5 -3 -10 -1 -10 4 0 6 5 11 10 11 6 0
10 -2 10 -4z m660 -76 c-2 -37 -25 -133 -35 -150 -11 -17 7 -11 21 8 11 15 12
12 4 -18 -6 -19 -10 -36 -10 -37 0 -2 -7 -3 -15 -3 -8 0 -24 -15 -36 -32 l-20
-33 7 40 c3 22 16 63 29 92 18 40 20 53 10 57 -16 6 -45 -51 -45 -88 0 -14 -6
-26 -12 -26 -7 0 -18 -11 -25 -25 -14 -31 0 -33 16 -2 11 21 11 20 6 -7 -3
-15 -13 -35 -20 -43 -8 -8 -15 -30 -15 -48 0 -47 -18 -54 -22 -8 -2 29 -8 39
-23 41 -11 2 -25 10 -32 18 -10 13 -16 13 -48 0 -21 -9 -65 -16 -99 -16 l-61
0 87 49 c191 107 288 194 288 259 0 11 8 28 17 37 16 16 17 16 26 -6 5 -13 9
-40 7 -59z m-757 26 c6 -14 -29 -54 -38 -44 -6 6 18 58 26 58 4 0 9 -6 12 -14z
m1850 -113 c4 -3 7 8 7 25 0 18 5 32 10 32 6 0 10 -16 10 -35 0 -19 -4 -35 -9
-35 -4 0 -7 -35 -5 -77 4 -84 -6 -109 -52 -140 -48 -31 -111 -34 -192 -7 -83
28 -82 27 -82 13 0 -5 15 -16 34 -24 19 -8 38 -19 41 -25 12 -19 -45 0 -146
49 -73 35 -99 53 -109 74 -7 16 -15 26 -17 23 -8 -8 -63 23 -63 34 0 6 -3 9
-7 9 -22 -4 -33 3 -33 20 0 17 13 13 108 -34 171 -86 321 -118 377 -81 62 41
86 97 91 218 4 92 17 109 25 30 3 -34 9 -65 12 -69z m-1763 107 c0 -5 -4 -10
-10 -10 -5 0 -10 5 -10 10 0 6 5 10 10 10 6 0 10 -4 10 -10z m-200 -20 c-24
-15 -37 -11 -16 5 11 8 22 12 25 9 3 -3 -1 -9 -9 -14z m50 0 c0 -5 -7 -10 -16
-10 -8 0 -12 5 -9 10 3 6 10 10 16 10 5 0 9 -4 9 -10z m90 -9 c0 -6 -4 -13
-10 -16 -5 -3 -10 1 -10 9 0 9 5 16 10 16 6 0 10 -4 10 -9z m-198 -23 c-7 -7
-12 -8 -12 -2 0 14 12 26 19 19 2 -3 -1 -11 -7 -17z m108 -16 c0 -13 -12 -22
-22 -16 -10 6 -1 24 13 24 5 0 9 -4 9 -8z m40 -2 c0 -5 -7 -7 -15 -4 -8 4 -15
8 -15 10 0 2 7 4 15 4 8 0 15 -4 15 -10z m-150 -60 c-11 -20 -30 -28 -30 -12
0 11 22 32 32 32 5 0 4 -9 -2 -20z m287 -25 c-7 -14 -17 -25 -24 -25 -7 0 -16
-8 -22 -17 -11 -21 -26 -11 -18 12 4 8 15 15 26 15 10 0 21 9 24 20 3 11 10
20 15 20 6 0 6 -9 -1 -25z m-197 -39 c0 -16 -28 -42 -36 -33 -8 7 14 47 26 47
6 0 10 -6 10 -14z m1337 -78 c-3 -7 -5 -2 -5 12 0 14 2 19 5 13 2 -7 2 -19 0
-25z m46 -15 c3 -16 -1 -50 -9 -78 -13 -44 -14 -45 -8 -10 8 51 8 65 -1 93 -4
13 -3 22 3 22 5 0 12 -12 15 -27z m-666 -75 c-2 -13 -4 -5 -4 17 -1 22 1 32 4
23 2 -10 2 -28 0 -40z m614 21 c-9 -22 -10 -22 -10 -3 -1 11 2 24 6 27 12 12
14 0 4 -24z m-571 -3 c0 -8 -4 -18 -10 -21 -5 -3 -10 3 -10 14 0 12 5 21 10
21 6 0 10 -6 10 -14z m-104 -82 c-4 -20 -10 -34 -13 -30 -3 3 -2 21 1 42 4 20
10 34 13 30 3 -3 2 -21 -1 -42z m104 10 c0 -14 -4 -22 -10 -19 -5 3 -10 17
-10 31 0 14 4 22 10 19 6 -3 10 -17 10 -31z m521 -191 c-9 -16 -10 -16 -11 4
0 12 3 30 7 40 7 16 8 16 11 -4 2 -12 -1 -30 -7 -40z m-561 38 c0 -6 -4 -13
-10 -16 -5 -3 -10 1 -10 9 0 9 5 16 10 16 6 0 10 -4 10 -9z m-29 -65 l21 29
-7 -60 c-4 -34 -13 -67 -22 -75 -12 -11 -14 -12 -8 -1 5 9 2 18 -7 25 -9 7
-18 35 -22 66 l-6 55 16 -34 15 -34 20 29z m56 2 c-6 -23 18 -67 31 -59 9 6
19 -42 21 -95 1 -26 8 -47 20 -58 18 -16 19 -15 25 19 10 53 23 42 30 -26 9
-74 -1 -89 -40 -68 -20 10 -28 11 -31 2 -3 -7 -14 -8 -31 -4 -26 7 -27 11 -35
97 -11 112 -12 177 -4 198 9 24 20 19 14 -6z m143 -49 c0 -5 -6 -9 -14 -9 -25
0 -46 12 -46 26 0 10 6 11 30 3 17 -6 30 -15 30 -20z m290 16 c0 -2 -15 -12
-32 -21 -18 -9 -37 -23 -41 -31 -5 -7 -12 -11 -18 -8 -14 9 20 53 44 58 35 7
47 7 47 2z m-165 -85 c3 -5 1 -10 -4 -10 -6 0 -11 5 -11 10 0 6 2 10 4 10 3 0
8 -4 11 -10z m246 -22 c2 -53 -2 -71 -23 -109 l-20 -36 -23 21 c-25 22 -19 41
13 41 13 0 16 7 14 34 -5 46 5 81 23 81 10 0 15 -11 16 -32z m-297 -41 c9 -26
16 -54 16 -62 0 -9 10 -15 24 -15 17 0 26 8 34 33 7 22 10 26 11 12 1 -30 -32
-90 -52 -93 -12 -2 -17 4 -17 23 0 15 -6 25 -14 25 -19 0 -36 47 -35 98 2 51
11 45 33 -21z m-389 -74 c-3 -24 -9 -42 -12 -40 -3 3 -2 30 2 59 5 29 10 47
13 40 2 -7 1 -34 -3 -59z m72 17 c-2 -17 -9 -36 -15 -42 -7 -7 -13 -28 -13
-47 -1 -27 -3 -30 -6 -12 -4 21 25 131 34 131 2 0 1 -14 0 -30z m9 -131 c-3
-17 -6 -42 -6 -56 0 -14 -4 -21 -10 -18 -11 7 -14 88 -3 98 16 16 25 5 19 -24z
m306 4 c23 -26 26 -54 11 -85 -7 -15 -12 -33 -11 -40 2 -7 -3 -12 -9 -10 -7 1
-13 -5 -13 -14 0 -11 -8 -14 -32 -11 l-33 3 2 60 c2 80 16 114 46 114 13 0 31
-8 39 -17z m133 -15 c-6 -30 -38 -67 -57 -68 -13 0 -9 75 4 88 7 7 23 12 36
12 21 0 23 -3 17 -32z m-301 6 c21 -21 20 -47 -3 -75 -16 -20 -23 -22 -38 -13
-10 6 -17 14 -16 18 2 3 6 24 9 46 7 43 22 50 48 24z m-224 -20 c0 -14 5 -34
11 -45 6 -11 8 -25 6 -32 -6 -15 -37 55 -37 83 0 11 5 20 10 20 6 0 10 -12 10
-26z m117 -66 c-3 -8 -6 -5 -6 6 -1 11 2 17 5 13 3 -3 4 -12 1 -19z m365 -40
c-10 -22 -11 -21 -11 12 -1 26 2 31 11 22 8 -8 8 -17 0 -34z"/>
<path d="M1755 3610 c-3 -5 3 -10 14 -10 12 0 21 5 21 10 0 6 -6 10 -14 10 -8
0 -18 -4 -21 -10z"/>
<path d="M1958 3513 c-12 -3 -17 -14 -16 -36 1 -82 8 -96 58 -136 48 -38 52
-39 107 -34 41 5 54 3 49 -5 -9 -14 3 -15 23 -3 12 8 12 13 -2 35 l-17 26 -33
-20 c-34 -21 -73 -27 -62 -10 3 6 15 10 25 10 25 0 29 9 35 67 5 48 5 48 -9
18 -22 -48 -51 -68 -83 -60 -35 9 -53 23 -64 53 -12 32 29 89 69 95 16 2 8 4
-18 4 -25 1 -53 -1 -62 -4z"/>
<path d="M2057 3473 c-11 -17 -15 -83 -5 -83 10 0 20 43 16 71 -2 16 -6 20
-11 12z"/>
<path d="M1992 3308 c31 -37 41 -43 76 -44 23 0 39 3 36 8 -3 4 -20 8 -39 8
-25 0 -40 8 -64 35 -43 50 -51 44 -9 -7z"/>
<path d="M3125 2600 c3 -4 14 -10 25 -13 11 -3 18 -2 15 3 -3 4 -14 10 -25 13
-11 3 -18 2 -15 -3z"/>
<path d="M2846 2511 c-4 -7 -5 -15 -2 -18 9 -9 19 4 14 18 -4 11 -6 11 -12 0z"/>
<path d="M2965 2360 c-3 -5 -1 -10 4 -10 6 0 11 5 11 10 0 6 -2 10 -4 10 -3 0
-8 -4 -11 -10z"/>
<path d="M1651 3014 c0 -11 3 -14 6 -6 3 7 2 16 -1 19 -3 4 -6 -2 -5 -13z"/>
<path d="M1705 3020 c3 -5 8 -10 11 -10 2 0 4 5 4 10 0 6 -5 10 -11 10 -5 0
-7 -4 -4 -10z"/>
<path d="M970 2780 c-9 -6 -10 -10 -3 -10 6 0 15 5 18 10 8 12 4 12 -15 0z"/>
<path d="M640 1929 c0 -5 5 -7 10 -4 6 3 10 8 10 11 0 2 -4 4 -10 4 -5 0 -10
-5 -10 -11z"/>
<path d="M2348 2808 c-16 -17 -28 -34 -28 -38 0 -4 -7 -13 -15 -20 -19 -15
-14 -23 9 -14 9 3 16 14 16 25 0 10 8 23 19 28 10 6 21 20 24 31 3 11 4 20 4
20 -1 -1 -14 -15 -29 -32z"/>
<path d="M2250 2679 c0 -5 5 -7 10 -4 6 3 10 8 10 11 0 2 -4 4 -10 4 -5 0 -10
-5 -10 -11z"/>
<path d="M2156 2613 c-6 -14 -5 -15 5 -6 7 7 10 15 7 18 -3 3 -9 -2 -12 -12z"/>
<path d="M1998 2560 c-22 -20 -28 -30 -17 -30 8 0 28 14 44 30 37 39 15 39
-27 0z"/>
<path d="M1372 2300 c0 -14 2 -19 5 -12 2 6 2 18 0 25 -3 6 -5 1 -5 -13z"/>
<path d="M1385 2260 c3 -5 11 -10 16 -10 6 0 7 5 4 10 -3 6 -11 10 -16 10 -6
0 -7 -4 -4 -10z"/>
<path d="M1277 2223 c-13 -12 -7 -51 8 -57 8 -3 15 0 15 7 0 8 4 6 10 -3 8
-12 10 -10 10 11 0 34 -26 60 -43 42z"/>
<path d="M1737 2068 c-3 -18 -1 -37 4 -42 6 -6 9 -2 9 10 0 10 3 29 6 42 4 12
2 22 -4 22 -5 0 -12 -15 -15 -32z"/>
<path d="M1906 1774 c-18 -18 -21 -40 -6 -49 6 -3 10 5 10 19 0 14 8 30 18 35
9 6 12 11 5 11 -6 0 -19 -7 -27 -16z"/>
<path d="M955 1600 c-3 -5 -1 -10 4 -10 6 0 11 5 11 10 0 6 -2 10 -4 10 -3 0
-8 -4 -11 -10z"/>
<path d="M1782 1575 c0 -16 2 -22 5 -12 2 9 2 23 0 30 -3 6 -5 -1 -5 -18z"/>
<path d="M1773 1505 c-6 -14 -8 -25 -4 -25 12 0 31 23 31 37 0 21 -14 15 -27
-12z"/>
</g>
</svg>
